{
    "name": "MouseInputActions",
    "maps": [
        {
            "name": "Click",
            "id": "112be68b-5814-4c79-9b3a-f241a7a5810c",
            "actions": [
                {
                    "name": "Left Button",
                    "type": "Button",
                    "id": "243aeb34-0034-4093-9505-570f19115dc1",
                    "expectedControlType": "Button",
                    "processors": "",
                    "interactions": ""
                }
            ],
            "bindings": [
                {
                    "name": "",
                    "id": "0b638b39-e0ab-4af7-9002-2ac67356c707",
                    "path": "<Mouse>/leftButton",
                    "interactions": "",
                    "processors": "",
                    "groups": "Mouse",
                    "action": "Left Button",
                    "isComposite": false,
                    "isPartOfComposite": false
                }
            ]
        },
        {
            "name": "Position",
            "id": "f51cdcae-32ed-43d3-ba76-b9bf5551328b",
            "actions": [
                {
                    "name": "Position",
                    "type": "Value",
                    "id": "c3616ffe-7123-44d1-b843-bc2c6a8e6a98",
                    "expectedControlType": "Vector2",
                    "processors": "",
                    "interactions": ""
                }
            ],
            "bindings": [
                {
                    "name": "",
                    "id": "82a050b4-a714-4ce7-8f6d-56e024995f68",
                    "path": "<Mouse>/position",
                    "interactions": "",
                    "processors": "",
                    "groups": "Mouse",
                    "action": "Position",
                    "isComposite": false,
                    "isPartOfComposite": false
                }
            ]
        }
    ],
    "controlSchemes": [
        {
            "name": "Mouse",
            "bindingGroup": "Mouse",
            "devices": [
                {
                    "devicePath": "<Mouse>",
                    "isOptional": false,
                    "isOR": false
                }
            ]
        }
    ]
}